{
  "en": {
    "south_manor_placard": "South Hill Manor",
    "south_manor_header": "Luxury and Paradise in Minecraft",
    "south_manor_h3_1": "What are we?",
    "south_manor_p_1": "We are the finest hotel/library/diplomatic stay establishement in Derrenomo. Our establishment serves as the very cornerstone of Derrenomo! This fine establishment was built with stones sourced from the deepest ends of the world and the Special Nether Region. Several important events were held in our establishment. Of which include:",
    "south_manor_li_1": "The Derrendist Charter",
    "south_manor_li_2": "The Normalization of Jenezia-Derrenomo Relations",
    "south_manor_li_3": "The Declaration of the State of Derrenomo",
    "south_manor_h3_2": "Come visit our wonderful amenities",
    "south_manor_p_2": "From our many and comfortable meeting rooms and kitchen to our diplomatic stays and spansive libraries. Rest assured knowing that we will keep you happy throughout your stay and/or visit.",
    "south_manor_h3_3": "So what are you waiting for?",
    "south_manor_p_3": "Come visit us now!",
    "south_manor_p_4": "Note: Please visit your nearest Derrenomo embassy or consulate and apply for a limited tourist visa or if applicable, diplomatic visa. You will be subjegated to and intense and thorough screening and background check. Need not apply if you were a member of a foreign intelligence agency. If you were able to recieve a visa, please contact us through the email below to make a reservation",
    "south_manor_email_disclaimer": "NOT A REAL EMAIL ADDRESS!"
  },
  "id": {
    "south_manor_placard": "Manor Bukit Selatan",
    "south_manor_header": "Kemewahan dan Surga di Minecraft",
    "south_manor_h3_1": "Apa ini Kami?",
    "south_manor_p_1": "Kami adalah hotel/perpustakaan/pendirian tinggal diplomatik terbaik di Derrenomo. Pendirian kami berfungsi sebagai landasan Derrenomo! Pendirian yang bagus ini dibangun dengan batu-batu yang bersumber dari ujung terdalam dunia dan Daerah Istimewa Nether. Beberapa acara penting diadakan di tempat kami. Diantaranya meliputi:",
    "south_manor_li_1": "Piagram Derrendisme",
    "south_manor_li_2": "Normalisasi Hubungan Jenezia-Derrenomo",
    "south_manor_li_3": "Deklarasi Negara Derrenomo",
    "south_manor_h3_2": "Kunjungi fasilitas kami yang luar biasa",
    "south_manor_p_2": "Dari ruang pertemuan dan dapur kami yang banyak dan nyaman hingga tempat tinggal diplomatik dan perpustakaan kami yang luas. Yakinlah mengetahui bahwa kami akan membuat Anda bahagia selama Anda tinggal dan/atau berkunjung.",
    "south_manor_h3_3": "Jadi tunggu apa lagi?",
    "south_manor_p_3": "Datang mengunjungi kami sekarang!",
    "south_manor_p_4": "Catatan: Silakan kunjungi kedutaan atau konsulat Derrenomo terdekat dan ajukan visa turis terbatas atau jika berlaku, visa diplomatik. Anda akan menjalani pemeriksaan intensif dan menyeluruh serta pemeriksaan latar belakang. Tidak perlu melamar jika Anda adalah anggota badan intelijen asing. Jika Anda dapat menerima visa, silakan hubungi kami melalui email di bawah ini untuk melakukan reservasi",
    "south_manor_email_disclaimer": "BUKAN ALAMAT EMAIL ASLI!"
  },
  "ja": {
    "south_manor_placard": "南丘の荘園",
    "south_manor_header": "マアインクラフトーの楽園贅沢です",
    "south_manor_h3_1": "我輩が何ですか?",
    "south_manor_p_1": "私たちは、デレノモで最高のホテル/図書館/外交滞在施設です。 当店はデレノモの礎です！ この素晴らしい施設は、世界の最深部と特別なネザー地域から調達された石で建てられました。 私たちの施設では、いくつかの重要なイベントが開催されました。 そのうち、次のものが含まれます。",
    "south_manor_li_1": "デレンディスト憲章",
    "south_manor_li_2": "ジェネシアとデレノモの関係の正常化",
    "south_manor_li_3": "デレノモ国宣言",
    "south_manor_h3_2": "素敵なアメニティをぜひ見に来てください",
    "south_manor_p_2": "多数の快適な会議室とキッチンから、外交滞在や広大な図書館まで。 ご滞在中および/または訪問中、お客様を幸せに保ちますのでご安心ください。",
    "south_manor_h3_3": "何を求めている？",
    "south_manor_p_3": "今すぐ私たちを訪ねてください！",
    "south_manor_p_4": "注: 最寄りのデレノモ大使館または領事館にアクセスして、限定観光ビザまたは該当する場合は外交ビザを申請してください。 あなたは厳しく徹底的な審査と身元調査を受けます。 外国の諜報機関のメンバーであった場合は、申請する必要はありません。 ビザが取得できた場合は、下記のメールアドレスにご連絡の上、ご予約ください。",
    "south_manor_email_disclaimer": "本当のメールではありません!"
  },
  "zh": {
    "south_manor_placard": "南山庄园",
    "south_manor_header": "我的世界中的奢华与天堂",
    "south_manor_h3_1": "我们是什么？",
    "south_manor_p_1": "我们是德雷诺莫最好的酒店/图书馆/外交住宿机构。 我们的机构是德雷诺莫的基石！ 这座精美的建筑是用来自世界最深处和特冥域的石头建造的。 我们的机构举办了几项重要活动。 其中包括：",
    "south_manor_li_1": "德伦宪章",
    "south_manor_li_2": "耶内齐亚和德雷诺莫关系正常化",
    "south_manor_li_3": "德雷诺莫国宣言",
    "south_manor_h3_2": "快来参观我们美妙的设施",
    "south_manor_p_2": "从我们众多舒适的会议室和厨房到我们的外交住宿和宽敞的图书馆。 请放心，我们会让您在整个住宿和/或访问期间保持愉快。",
    "south_manor_h3_3": "那你还在等什么？",
    "south_manor_p_3": "快来拜访我们吧！",
    "south_manor_p_4": "注意：请访问离您最近的德雷诺莫大使馆或领事馆，申请有限的旅游签证或外交签证（如适用）。 您将接受严格而彻底的筛选和背景调查。 如果您是外国情报机构的成员，则无需申请。 如果您能够获得签证，请通过以下电子邮件联系我们进行预订",
    "south_manor_email_disclaimer": "不是真实的电子邮件！"
  },
  "it": {
    "south_manor_placard": "Maniero Della Collina Sud",
    "south_manor_header": "Lusso e Paradiso in Minecraft",
    "south_manor_h3_1": "Cosa siamo noi?",
    "south_manor_p_1": "Siamo la migliore struttura alberghiera/biblioteca/soggiorno diplomatico di Derrenomo. Il nostro stabilimento funge da pietra angolare di Derrenomo! Questa bella struttura è stata costruita con pietre provenienti dalle estremità più profonde del mondo e dalla regione speciale del Nether. Nel nostro stabilimento si sono svolti diversi eventi importanti. Di cui includono",
    "south_manor_li_1": "La Carta Derrendista",
    "south_manor_li_2": "La Normalizzazione delle Relazioni Jenezia-Derrenomo",
    "south_manor_li_3": "La Dichiarazione dello Stato di Derrenomo",
    "south_manor_h3_2": "Vieni a visitare i nostri meravigliosi servizi",
    "south_manor_p_2": "Dalle nostre numerose e confortevoli sale riunioni e cucina ai nostri soggiorni diplomatici e ampie biblioteche. Siate certi sapendo che vi terremo felici durante il vostro soggiorno e/o visita.",
    "south_manor_h3_3": "Allora, cosa stai aspettando?",
    "south_manor_p_3": "Vieni a trovarci ora!",
    "south_manor_p_4": "Nota: visita l'ambasciata o il consolato Derrenomo più vicino e richiedi un visto turistico limitato o, se applicabile, un visto diplomatico. Sarai sottoposto a uno screening e un controllo dei precedenti intensi e approfonditi. Non devi fare domanda se eri un membro di un'agenzia di intelligence straniera. Se sei stato in grado di ricevere un visto, ti preghiamo di contattarci tramite l'e-mail qui sotto per effettuare una prenotazione",
    "south_manor_email_disclaimer": "NON È UN VERO INDIRIZZO EMAIL!"
  }
}
